…
results_df
```

    ## # A tibble: 50 × 4
    ##    city_state    estimate conf.low conf.high
    ##    <chr>            <dbl>    <dbl>     <dbl>
    ##  1 AlbuquerqueNM    0.386    0.337     0.438
    ##  2 AtlantaGA        0.383    0.353     0.415
    ##  3 BaltimoreMD      0.646    0.628     0.663
    ##  4 Baton RougeLA    0.462    0.414     0.511
    ##  5 BirminghamAL     0.434    0.399     0.469
    ##  6 BostonMA         0.505    0.465     0.545
    ##  7 BuffaloNY        0.612    0.569     0.654
    ##  8 CharlotteNC      0.300    0.266     0.336
    ##  9 ChicagoIL        0.736    0.724     0.747
    ## 10 CincinnatiOH     0.445    0.408     0.483
    ## # … with 40 more rows
…
  group_by(city_state) %>%
  summarize(
    unsolved = sum(resolution == "unsolved"),
    n = n()
  ) %>%
  mutate(
    test_results = map2(unsolved, n, prop.test),
    tidy_results = map(test_results, broom::tidy)
  ) %>%
  select(city_state, tidy_results) %>%
  unnest(tidy_results) %>%
  select(city_state, estimate, starts_with("conf"))
```

    ## # A tibble: 50 × 4
    ##    city_state    estimate conf.low conf.high
    ##    <chr>            <dbl>    <dbl>     <dbl>
    ##  1 AlbuquerqueNM    0.386    0.337     0.438
    ##  2 AtlantaGA        0.383    0.353     0.415
    ##  3 BaltimoreMD      0.646    0.628     0.663
    ##  4 Baton RougeLA    0.462    0.414     0.511
    ##  5 BirminghamAL     0.434    0.399     0.469
    ##  6 BostonMA         0.505    0.465     0.545
    ##  7 BuffaloNY        0.612    0.569     0.654
    ##  8 CharlotteNC      0.300    0.266     0.336
    ##  9 ChicagoIL        0.736    0.724     0.747
    ## 10 CincinnatiOH     0.445    0.408     0.483
    ## # … with 40 more rows
…
study_df
```

    ## # A tibble: 160 × 4
    ##    arm     subject_id week  observation
    ##    <chr>   <chr>      <chr>       <dbl>
    ##  1 Control 01         1            0.2 
    ##  2 Control 01         2           -1.31
    ##  3 Control 01         3            0.66
    ##  4 Control 01         4            1.96
    ##  5 Control 01         5            0.23
    ##  6 Control 01         6            1.09
    ##  7 Control 01         7            0.05
    ##  8 Control 01         8            1.94
    ##  9 Control 02         1            1.13
    ## 10 Control 02         2           -0.88
    ## # … with 150 more rows
…
